{
    "fluentMethods": true,
    "relationships": [
        {
            "relationshipType": "one-to-many",
            "relationshipName": "modulo",
            "otherEntityName": "modulo",
            "otherEntityRelationshipName": "aplicacion"
        }
    ],
    "fields": [
        {
            "fieldName": "varNomApp",
            "fieldType": "String",
            "fieldValidateRules": [
                "maxlength"
            ],
            "fieldValidateRulesMaxlength": 100
        },
        {
            "fieldName": "varDescApp",
            "fieldType": "String",
            "fieldValidateRules": [
                "maxlength"
            ],
            "fieldValidateRulesMaxlength": 300
        },
        {
            "fieldName": "varUrlApp",
            "fieldType": "String",
            "fieldValidateRules": [
                "maxlength"
            ],
            "fieldValidateRulesMaxlength": 100
        },
        {
            "fieldName": "numEstApp",
            "fieldType": "Integer"
        },
        {
            "fieldName": "varUsuarioLog",
            "fieldType": "String",
            "fieldValidateRules": [
                "required",
                "maxlength"
            ],
            "fieldValidateRulesMaxlength": 20
        },
        {
            "fieldName": "datFechaLog",
            "fieldType": "Instant",
            "fieldValidateRules": [
                "required"
            ]
        },
        {
            "fieldName": "numEliminar",
            "fieldType": "Integer",
            "fieldValidateRules": [
                "required",
                "min",
                "max"
            ],
            "fieldValidateRulesMin": 0,
            "fieldValidateRulesMax": 1
        }
    ],
    "changelogDate": "20171106144909",
    "entityTableName": "aplicacion",
    "dto": "no",
    "pagination": "pagination",
    "service": "no",
    "jpaMetamodelFiltering": false,
    "microserviceName": "SEGURIDAD"
}