{
    "fluentMethods": true,
    "relationships": [
        {
            "relationshipName": "entidad",
            "otherEntityName": "entidad",
            "relationshipType": "many-to-one",
            "otherEntityField": "id"
        },
        {
            "relationshipType": "one-to-many",
            "relationshipName": "usuarioGrupo",
            "otherEntityName": "usuarioGrupo",
            "otherEntityRelationshipName": "grupo"
        }
    ],
    "fields": [
        {
            "fieldName": "numCodLocal",
            "fieldType": "Integer"
        },
        {
            "fieldName": "numEstGrupo",
            "fieldType": "Integer"
        },
        {
            "fieldName": "varNomGrupo",
            "fieldType": "String",
            "fieldValidateRules": [
                "maxlength"
            ],
            "fieldValidateRulesMaxlength": 100
        },
        {
            "fieldName": "varDescGrupo",
            "fieldType": "String",
            "fieldValidateRules": [
                "maxlength"
            ],
            "fieldValidateRulesMaxlength": 300
        },
        {
            "fieldName": "varUsuarioLog",
            "fieldType": "String",
            "fieldValidateRules": [
                "required",
                "maxlength"
            ],
            "fieldValidateRulesMaxlength": 20
        },
        {
            "fieldName": "datFechaLog",
            "fieldType": "Instant",
            "fieldValidateRules": [
                "required"
            ]
        },
        {
            "fieldName": "numEliminar",
            "fieldType": "Integer",
            "fieldValidateRules": [
                "required",
                "min",
                "max"
            ],
            "fieldValidateRulesMin": 0,
            "fieldValidateRulesMax": 1
        }
    ],
    "changelogDate": "20171106144920",
    "entityTableName": "grupo",
    "dto": "no",
    "pagination": "pagination",
    "service": "no",
    "jpaMetamodelFiltering": false,
    "microserviceName": "SEGURIDAD"
}