{
    "fluentMethods": true,
    "relationships": [
        {
            "relationshipType": "one-to-many",
            "relationshipName": "usuario",
            "otherEntityName": "usuario",
            "otherEntityRelationshipName": "tipoUsuario"
        }
    ],
    "fields": [
        {
            "fieldName": "varNomTpusuario",
            "fieldType": "String",
            "fieldValidateRules": [
                "maxlength"
            ],
            "fieldValidateRulesMaxlength": 100
        },
        {
            "fieldName": "varDescTpusuario",
            "fieldType": "String",
            "fieldValidateRules": [
                "maxlength"
            ],
            "fieldValidateRulesMaxlength": 300
        },
        {
            "fieldName": "varUsuarioLog",
            "fieldType": "String",
            "fieldValidateRules": [
                "required",
                "maxlength"
            ],
            "fieldValidateRulesMaxlength": 20
        },
        {
            "fieldName": "datFechaLog",
            "fieldType": "Instant",
            "fieldValidateRules": [
                "required"
            ]
        },
        {
            "fieldName": "numEliminar",
            "fieldType": "Integer",
            "fieldValidateRules": [
                "required",
                "min",
                "max"
            ],
            "fieldValidateRulesMin": 0,
            "fieldValidateRulesMax": 1
        }
    ],
    "changelogDate": "20171106144911",
    "entityTableName": "tipo_usuario",
    "dto": "no",
    "pagination": "pagination",
    "service": "no",
    "jpaMetamodelFiltering": false,
    "microserviceName": "SEGURIDAD"
}